<?xml version="1.0" encoding="UTF-8" standalone="no"?>
<!-- Created with Inkscape (http://www.inkscape.org/) -->

<svg
   xmlns:dc="http://purl.org/dc/elements/1.1/"
   xmlns:cc="http://creativecommons.org/ns#"
   xmlns:rdf="http://www.w3.org/1999/02/22-rdf-syntax-ns#"
   xmlns:svg="http://www.w3.org/2000/svg"
   xmlns="http://www.w3.org/2000/svg"
   xmlns:sodipodi="http://sodipodi.sourceforge.net/DTD/sodipodi-0.dtd"
   xmlns:inkscape="http://www.inkscape.org/namespaces/inkscape"
   version="1.1"
   id="svg2"
   xml:space="preserve"
   width="146.90933"
   height="177.25867"
   viewBox="0 0 146.90933 177.25867"
   sodipodi:docname="icon2.svg"
   inkscape:version="0.92.1 r15371"><metadata
     id="metadata8"><rdf:RDF><cc:Work
         rdf:about=""><dc:format>image/svg+xml</dc:format><dc:type
           rdf:resource="http://purl.org/dc/dcmitype/StillImage" /><dc:title></dc:title></cc:Work></rdf:RDF></metadata><defs
     id="defs6"><clipPath
       clipPathUnits="userSpaceOnUse"
       id="clipPath18"><path
         d="M 0,132.944 H 110.182 V 0 H 0 Z"
         id="path16"
         inkscape:connector-curvature="0" /></clipPath></defs><sodipodi:namedview
     pagecolor="#ffffff"
     bordercolor="#666666"
     borderopacity="1"
     objecttolerance="10"
     gridtolerance="10"
     guidetolerance="10"
     inkscape:pageopacity="0"
     inkscape:pageshadow="2"
     inkscape:window-width="743"
     inkscape:window-height="480"
     id="namedview4"
     showgrid="false"
     inkscape:zoom="1.3313876"
     inkscape:cx="73.454666"
     inkscape:cy="88.629333"
     inkscape:window-x="0"
     inkscape:window-y="0"
     inkscape:window-maximized="0"
     inkscape:current-layer="g10" /><g
     id="g10"
     inkscape:groupmode="layer"
     inkscape:label="Vector Smart Object1"
     transform="matrix(1.3333333,0,0,-1.3333333,0,177.25867)"><g
       id="g12"><g
         id="g14"
         clip-path="url(#clipPath18)"><g
           id="g20"
           transform="translate(40.7542,33.5709)"><path
             d="m 0,0 c 1.133,3.537 4.675,6.265 4.437,10.176 -0.083,1.367 1.754,2.027 2.658,1.101 1.652,-1.694 2.718,-3.623 3.518,-5.708 1.305,3.841 1.345,7.748 -0.389,11.815 -0.063,0.146 -0.096,0.29 -0.117,0.432 -0.19,0.986 0.604,2.086 1.607,1.95 0.403,0.019 0.794,-0.146 1.061,-0.561 4.492,-3.231 6.532,-8.303 7.127,-13.618 0.484,1.231 0.675,2.59 0.627,4.062 -0.057,1.742 2.722,2.142 3.058,0.414 0.58,-2.977 2.751,-5.287 3.037,-8.396 0.289,-3.141 -0.295,-6.348 -2.008,-8.936 h 4.831 v 18.324 c 0,7.957 -6.473,14.431 -14.43,14.431 h -3.893 c -7.957,0 -14.431,-6.474 -14.431,-14.431 V -7.269 H 0.409 C -0.578,-4.977 -0.802,-2.501 0,0"
             style="fill:#b7a179;fill-opacity:1;fill-rule:nonzero;stroke:none"
             id="path22"
             inkscape:connector-curvature="0" /></g><g
           id="g24"
           transform="translate(89.2376,81.9615)"><path
             d="m 0,0 c 0,-1.032 -0.837,-1.868 -1.868,-1.868 h -68.32 c -1.033,0 -1.869,0.836 -1.869,1.868 v 16.379 h -7.388 V -9.011 H 7.389 v 25.39 H 0 Z"
             style="fill:#b7a179;fill-opacity:1;fill-rule:nonzero;stroke:none"
             id="path26"
             inkscape:connector-curvature="0" /></g><g
           id="g28"
           transform="translate(24.5423,12.4342)"><path
             d="M 0,0 H -14.752 V -6.831 H 72.084 V 0 H 57.406 Z"
             style="fill:#b7a179;fill-opacity:1;fill-rule:nonzero;stroke:none"
             id="path30"
             inkscape:connector-curvature="0" /></g><g
           id="g32"
           transform="translate(83.8314,12.4356)"><path
             d="m 0,0 h -57.406 l -16.62,56.779 h 90.571 z"
             style="fill:none;stroke:#414042;stroke-width:3.73699999;stroke-linecap:round;stroke-linejoin:round;stroke-miterlimit:10;stroke-dasharray:none;stroke-opacity:1"
             id="path34"
             inkscape:connector-curvature="0" /></g><g
           id="g36"
           transform="translate(91.1009,98.3419)"><path
             d="M 0,0 H 9.276 V -29.126 H -81.295 V 0 h 9.276"
             style="fill:none;stroke:#414042;stroke-width:3.73699999;stroke-linecap:round;stroke-linejoin:round;stroke-miterlimit:10;stroke-dasharray:none;stroke-opacity:1"
             id="path38"
             inkscape:connector-curvature="0" /></g><g
           id="g40"
           transform="translate(55.7074,59.0582)"><path
             d="m 0,0 v 0 c -10.077,0 -18.245,-8.169 -18.245,-18.246 v -18.245 h 36.49 v 18.245 C 18.245,-8.169 10.077,0 0,0 Z"
             style="fill:none;stroke:#414042;stroke-width:3.73699999;stroke-linecap:round;stroke-linejoin:round;stroke-miterlimit:10;stroke-dasharray:none;stroke-opacity:1"
             id="path42"
             inkscape:connector-curvature="0" /></g><g
           id="g44"
           transform="translate(89.2523,98.3419)"><path
             d="M 0,0 V -18.247 H -68.32 V 0"
             style="fill:none;stroke:#414042;stroke-width:3.73699999;stroke-linecap:round;stroke-linejoin:round;stroke-miterlimit:10;stroke-dasharray:none;stroke-opacity:1"
             id="path46"
             inkscape:connector-curvature="0" /></g><g
           id="g48"
           transform="translate(46.7396,24.1207)"><path
             d="M 0,0 C -4.416,6.957 3.802,10.991 3.448,17.759 2.563,17.392 1.677,17.025 0.79,16.658 3.073,14.274 3.931,11.438 4.754,8.325 5.265,6.389 8.27,7.21 7.756,9.152 6.789,12.811 5.652,16.083 2.992,18.86 2.088,19.804 0.264,19.114 0.334,17.759 0.541,13.797 -3.037,11.031 -4.15,7.424 -5.129,4.256 -4.43,1.17 -2.688,-1.571 -1.617,-3.258 1.079,-1.698 0,0"
             style="fill:#414042;fill-opacity:1;fill-rule:nonzero;stroke:none"
             id="path50"
             inkscape:connector-curvature="0" /></g><g
           id="g52"
           transform="translate(54.3392,32.0733)"><path
             d="M 0,0 C 3.293,6.132 3.938,12.126 1.21,18.586 0.433,20.426 -2.25,18.84 -1.479,17.014 0.801,11.618 0.021,6.618 -2.689,1.572 -3.637,-0.193 -0.95,-1.768 0,0"
             style="fill:#414042;fill-opacity:1;fill-rule:nonzero;stroke:none"
             id="path54"
             inkscape:connector-curvature="0" /></g><g
           id="g56"
           transform="translate(53.4193,48.5289)"><path
             d="m 0,0 c 5.116,-3.451 6.329,-9.911 6.197,-15.695 -0.046,-2.005 3.069,-2.004 3.115,0 C 9.471,-8.702 7.654,-1.415 1.571,2.689 -0.095,3.813 -1.654,1.116 0,0"
             style="fill:#414042;fill-opacity:1;fill-rule:nonzero;stroke:none"
             id="path58"
             inkscape:connector-curvature="0" /></g><g
           id="g60"
           transform="translate(62.2747,31.733)"><path
             d="M 0,0 C 2.903,2.438 4.111,5.89 4.005,9.62 2.985,9.482 1.967,9.344 0.947,9.206 1.392,7.094 2.801,5.303 3.481,3.277 4.646,-0.189 3.802,-4.495 1.149,-7.036 -0.3,-8.426 1.903,-10.625 3.352,-9.238 6.256,-6.455 7.314,-2.525 7.003,1.428 6.75,4.64 4.593,6.978 3.949,10.034 3.587,11.755 0.842,11.366 0.892,9.62 0.977,6.623 0.122,4.152 -2.202,2.202 -3.739,0.912 -1.526,-1.281 0,0"
             style="fill:#414042;fill-opacity:1;fill-rule:nonzero;stroke:none"
             id="path62"
             inkscape:connector-curvature="0" /></g><g
           id="g64"
           transform="translate(29.9495,98.3419)"><path
             d="M 0,0 H -28.081"
             style="fill:none;stroke:#414042;stroke-width:3.73699999;stroke-linecap:round;stroke-linejoin:round;stroke-miterlimit:10;stroke-dasharray:none;stroke-opacity:1"
             id="path66"
             inkscape:connector-curvature="0" /></g><g
           id="g68"
           transform="translate(108.3138,98.3419)"><path
             d="M 0,0 H -28.081"
             style="fill:none;stroke:#414042;stroke-width:3.73699999;stroke-linecap:round;stroke-linejoin:round;stroke-miterlimit:10;stroke-dasharray:none;stroke-opacity:1"
             id="path70"
             inkscape:connector-curvature="0" /></g><g
           id="g72"
           transform="translate(29.9495,98.3419)"><path
             d="M 0,0 8.381,-8.38"
             style="fill:none;stroke:#414042;stroke-width:3.73699999;stroke-linecap:round;stroke-linejoin:round;stroke-miterlimit:10;stroke-dasharray:none;stroke-opacity:1"
             id="path74"
             inkscape:connector-curvature="0" /></g><g
           id="g76"
           transform="translate(38.3304,89.9615)"><path
             d="M 0,0 8.38,8.38"
             style="fill:none;stroke:#414042;stroke-width:3.73699999;stroke-linecap:round;stroke-linejoin:round;stroke-miterlimit:10;stroke-dasharray:none;stroke-opacity:1"
             id="path78"
             inkscape:connector-curvature="0" /></g><g
           id="g80"
           transform="translate(46.7103,98.3419)"><path
             d="M 0,0 8.381,-8.38"
             style="fill:none;stroke:#414042;stroke-width:3.73699999;stroke-linecap:round;stroke-linejoin:round;stroke-miterlimit:10;stroke-dasharray:none;stroke-opacity:1"
             id="path82"
             inkscape:connector-curvature="0" /></g><g
           id="g84"
           transform="translate(55.0911,89.9615)"><path
             d="M 0,0 8.38,8.38"
             style="fill:none;stroke:#414042;stroke-width:3.73699999;stroke-linecap:round;stroke-linejoin:round;stroke-miterlimit:10;stroke-dasharray:none;stroke-opacity:1"
             id="path86"
             inkscape:connector-curvature="0" /></g><g
           id="g88"
           transform="translate(63.471,98.3419)"><path
             d="M 0,0 8.381,-8.38"
             style="fill:none;stroke:#414042;stroke-width:3.73699999;stroke-linecap:round;stroke-linejoin:round;stroke-miterlimit:10;stroke-dasharray:none;stroke-opacity:1"
             id="path90"
             inkscape:connector-curvature="0" /></g><g
           id="g92"
           transform="translate(71.8519,89.9615)"><path
             d="M 0,0 8.381,8.38"
             style="fill:none;stroke:#414042;stroke-width:3.73699999;stroke-linecap:round;stroke-linejoin:round;stroke-miterlimit:10;stroke-dasharray:none;stroke-opacity:1"
             id="path94"
             inkscape:connector-curvature="0" /></g><path
           d="M 100.377,1.868 H 9.805 v 10.567 h 90.572 z"
           style="fill:none;stroke:#414042;stroke-width:3.73699999;stroke-linecap:round;stroke-linejoin:round;stroke-miterlimit:10;stroke-dasharray:none;stroke-opacity:1"
           id="path96"
           inkscape:connector-curvature="0" /><g
           id="g98"
           transform="translate(38.306,131.0753)"><path
             d="m 0,0 v 0 c 2.206,-2.206 2.206,-5.783 0,-7.99 l -0.153,-0.153 c -2.206,-2.206 -2.206,-5.783 0,-7.99 l 0.727,-0.727 c 2.206,-2.206 2.206,-5.783 0,-7.99"
             style="fill:none;stroke:#414042;stroke-width:3.73699999;stroke-linecap:round;stroke-linejoin:round;stroke-miterlimit:10;stroke-dasharray:none;stroke-opacity:1"
             id="path100"
             inkscape:connector-curvature="0" /></g><g
           id="g102"
           transform="translate(54.8802,131.0753)"><path
             d="m 0,0 v 0 c 2.206,-2.206 2.206,-5.783 0,-7.99 l -0.152,-0.153 c -2.207,-2.206 -2.207,-5.783 0,-7.99 l 0.726,-0.727 c 2.206,-2.206 2.206,-5.783 0,-7.99"
             style="fill:none;stroke:#414042;stroke-width:3.73699999;stroke-linecap:round;stroke-linejoin:round;stroke-miterlimit:10;stroke-dasharray:none;stroke-opacity:1"
             id="path104"
             inkscape:connector-curvature="0" /></g><g
           id="g106"
           transform="translate(70.8314,131.0753)"><path
             d="m 0,0 h 0.001 c 2.206,-2.206 2.206,-5.783 0,-7.99 l -0.153,-0.153 c -2.206,-2.206 -2.206,-5.783 0,-7.99 l 0.726,-0.727 c 2.207,-2.206 2.207,-5.783 0,-7.99"
             style="fill:none;stroke:#414042;stroke-width:3.73699999;stroke-linecap:round;stroke-linejoin:round;stroke-miterlimit:10;stroke-dasharray:none;stroke-opacity:1"
             id="path108"
             inkscape:connector-curvature="0" /></g></g></g></g></svg>