<?xml version="1.0" encoding="UTF-8" standalone="no"?>
<!-- Created with Inkscape (http://www.inkscape.org/) -->

<svg
   xmlns:dc="http://purl.org/dc/elements/1.1/"
   xmlns:cc="http://creativecommons.org/ns#"
   xmlns:rdf="http://www.w3.org/1999/02/22-rdf-syntax-ns#"
   xmlns:svg="http://www.w3.org/2000/svg"
   xmlns="http://www.w3.org/2000/svg"
   xmlns:sodipodi="http://sodipodi.sourceforge.net/DTD/sodipodi-0.dtd"
   xmlns:inkscape="http://www.inkscape.org/namespaces/inkscape"
   version="1.1"
   id="svg2"
   xml:space="preserve"
   width="160.46001"
   height="156.13467"
   viewBox="0 0 160.46001 156.13467"
   sodipodi:docname="icon7.svg"
   inkscape:version="0.92.1 r15371"><metadata
     id="metadata8"><rdf:RDF><cc:Work
         rdf:about=""><dc:format>image/svg+xml</dc:format><dc:type
           rdf:resource="http://purl.org/dc/dcmitype/StillImage" /><dc:title></dc:title></cc:Work></rdf:RDF></metadata><defs
     id="defs6"><clipPath
       clipPathUnits="userSpaceOnUse"
       id="clipPath18"><path
         d="M 0,117.101 H 120.345 V 0 H 0 Z"
         id="path16"
         inkscape:connector-curvature="0" /></clipPath></defs><sodipodi:namedview
     pagecolor="#ffffff"
     bordercolor="#666666"
     borderopacity="1"
     objecttolerance="10"
     gridtolerance="10"
     guidetolerance="10"
     inkscape:pageopacity="0"
     inkscape:pageshadow="2"
     inkscape:window-width="743"
     inkscape:window-height="480"
     id="namedview4"
     showgrid="false"
     inkscape:zoom="1.5115156"
     inkscape:cx="80.230003"
     inkscape:cy="78.067337"
     inkscape:window-x="0"
     inkscape:window-y="0"
     inkscape:window-maximized="0"
     inkscape:current-layer="g10" /><g
     id="g10"
     inkscape:groupmode="layer"
     inkscape:label="Vector Smart Object5"
     transform="matrix(1.3333333,0,0,-1.3333333,0,156.13467)"><g
       id="g12"><g
         id="g14"
         clip-path="url(#clipPath18)"><g
           id="g20"
           transform="translate(44.3059,52.0082)"><path
             d="M 0,0 H -2.409 C -2.41,0 -2.411,0 -2.413,0 -2.414,0 -2.415,0 -2.417,0 h -31.189 c -10e-4,0 -0.002,0 -0.003,0 -10e-4,0 -0.002,0 -0.003,0 h -9.011 c 2.831,-9.236 11.502,-15.756 21.311,-15.756 9.811,0 18.482,6.52 21.312,15.756"
             style="fill:#b7a179;fill-opacity:1;fill-rule:nonzero;stroke:none"
             id="path22"
             inkscape:connector-curvature="0" /></g><g
           id="g24"
           transform="translate(112.4846,52.0078)"><path
             d="M 0,0 C -0.004,0 -0.008,0.001 -0.013,0.001 H -31.187 C -31.19,0.001 -31.194,0 -31.198,0 -31.2,0 -31.203,0.001 -31.205,0.001 h -9.008 c 2.025,-6.623 7.067,-11.97 13.599,-14.375 l 5.713,5.716 c 2.413,2.414 6.348,2.406 8.772,-0.018 l 0.119,-0.127 c 1.413,-1.412 1.959,-3.392 1.639,-5.258 6.149,2.533 10.838,7.672 12.783,14.062 H 0.01 C 0.007,0.001 0.003,0 0,0"
             style="fill:#b7a179;fill-opacity:1;fill-rule:nonzero;stroke:none"
             id="path26"
             inkscape:connector-curvature="0" /></g><g
           id="g28"
           transform="translate(58.2903,97.7861)"><path
             d="M 0,0 C 3.52,0 6.383,2.863 6.385,6.382 V 6.386 6.39 C 6.383,9.909 3.52,12.771 0,12.771 c -3.518,0 -6.379,-2.859 -6.385,-6.375 0,-0.003 10e-4,-0.006 10e-4,-0.01 0,-0.003 -10e-4,-0.007 -10e-4,-0.01 C -6.38,2.86 -3.518,0 0,0"
             style="fill:#b7a179;fill-opacity:1;fill-rule:nonzero;stroke:none"
             id="path30"
             inkscape:connector-curvature="0" /></g><g
           id="g32"
           transform="translate(42.1223,25.728)"><path
             d="m 0,0 c 0.085,-0.042 0.176,-0.066 0.267,-0.066 h 15.93 c 0.194,0 0.381,0.012 0.563,0.042 2.081,0.272 3.684,2.051 3.684,4.205 0,1.168 -0.471,2.233 -1.246,3.001 -0.762,0.768 -1.827,1.246 -3.001,1.246 H -5.512 c -9.838,0 -18.822,-5.572 -23.203,-14.375 l -9.892,-16.034 c -0.502,-1.004 0.23,-2.19 1.361,-2.19 h 26.888 c 0.653,0 1.179,0.526 1.179,1.18 0,2.65 1.077,5.046 2.808,6.782 1.736,1.737 4.139,2.808 6.782,2.808 h 31.408 c 3.636,0 7.127,1.445 9.699,4.017 L 59.094,8.192 c 1.755,1.761 1.755,4.605 0,6.359 l -0.078,0.085 c -1.828,1.827 -4.762,1.827 -6.572,0.018 C 49.286,11.496 44.524,6.728 41.288,3.491 39.031,1.241 35.976,-0.024 32.793,-0.024 H 16.76 0.267 C 0.176,-0.024 0.085,-0.018 0,0"
             style="fill:none;stroke:#404041;stroke-width:3.11400008;stroke-linecap:round;stroke-linejoin:round;stroke-miterlimit:10;stroke-dasharray:none;stroke-opacity:1"
             id="path34"
             inkscape:connector-curvature="0" /></g><g
           id="g36"
           transform="translate(1.5569,51.6982)"><path
             d="m 0,0 c 2.286,-10.782 11.858,-18.87 23.32,-18.87 11.463,0 21.035,8.088 23.322,18.87 z"
             style="fill:none;stroke:#404041;stroke-width:3.11400008;stroke-linecap:round;stroke-linejoin:round;stroke-miterlimit:10;stroke-dasharray:none;stroke-opacity:1"
             id="path38"
             inkscape:connector-curvature="0" /></g><g
           id="g40"
           transform="translate(5.9793,51.6982)"><path
             d="M 0,0 18.898,50.606 37.796,0"
             style="fill:none;stroke:#404041;stroke-width:3.11400008;stroke-linecap:round;stroke-linejoin:round;stroke-miterlimit:10;stroke-dasharray:none;stroke-opacity:1"
             id="path42"
             inkscape:connector-curvature="0" /></g><g
           id="g44"
           transform="translate(88.1604,33.9711)"><path
             d="m 0,0 c -8.053,2.583 -14.236,9.342 -16.015,17.728 h 4.423 37.796 4.423 C 28.788,9.069 22.254,2.142 13.813,-0.242"
             style="fill:none;stroke:#404041;stroke-width:3.11400008;stroke-linecap:round;stroke-linejoin:round;stroke-miterlimit:10;stroke-dasharray:none;stroke-opacity:1"
             id="path46"
             inkscape:connector-curvature="0" /></g><g
           id="g48"
           transform="translate(76.5706,51.6982)"><path
             d="M 0,0 18.898,50.606 37.797,0"
             style="fill:none;stroke:#404041;stroke-width:3.11400008;stroke-linecap:round;stroke-linejoin:round;stroke-miterlimit:10;stroke-dasharray:none;stroke-opacity:1"
             id="path50"
             inkscape:connector-curvature="0" /></g><g
           id="g52"
           transform="translate(60.1702,110.2495)"><path
             d="M 0,0 V 5.294"
             style="fill:none;stroke:#404041;stroke-width:3.11400008;stroke-linecap:round;stroke-linejoin:round;stroke-miterlimit:10;stroke-dasharray:none;stroke-opacity:1"
             id="path54"
             inkscape:connector-curvature="0" /></g><g
           id="g56"
           transform="translate(60.1702,33.7304)"><path
             d="M 0,0 V 60.631"
             style="fill:none;stroke:#404041;stroke-width:3.11400008;stroke-linecap:round;stroke-linejoin:round;stroke-miterlimit:10;stroke-dasharray:none;stroke-opacity:1"
             id="path58"
             inkscape:connector-curvature="0" /></g><g
           id="g60"
           transform="translate(95.468,102.3056)"><path
             d="M 0,0 H -27.354"
             style="fill:none;stroke:#404041;stroke-width:3.11400008;stroke-linecap:round;stroke-linejoin:round;stroke-miterlimit:10;stroke-dasharray:none;stroke-opacity:1"
             id="path62"
             inkscape:connector-curvature="0" /></g><g
           id="g64"
           transform="translate(52.2327,102.3056)"><path
             d="M 0,0 H -27.354"
             style="fill:none;stroke:#404041;stroke-width:3.11400008;stroke-linecap:round;stroke-linejoin:round;stroke-miterlimit:10;stroke-dasharray:none;stroke-opacity:1"
             id="path66"
             inkscape:connector-curvature="0" /></g><g
           id="g68"
           transform="translate(68.1155,102.3046)"><path
             d="m 0,0 c 0,4.386 -3.556,7.942 -7.942,7.942 -4.387,0 -7.943,-3.556 -7.943,-7.942 0,-4.386 3.556,-7.942 7.943,-7.942 C -3.556,-7.942 0,-4.386 0,0 Z"
             style="fill:none;stroke:#404041;stroke-width:3.11400008;stroke-linecap:round;stroke-linejoin:round;stroke-miterlimit:10;stroke-dasharray:none;stroke-opacity:1"
             id="path70"
             inkscape:connector-curvature="0" /></g><g
           id="g72"
           transform="translate(12.5784,51.6982)"><path
             d="M 0,0 C 1.085,3.684 2.006,7.413 2.888,11.15"
             style="fill:none;stroke:#404041;stroke-width:3.11400008;stroke-linecap:round;stroke-linejoin:round;stroke-miterlimit:10;stroke-dasharray:none;stroke-opacity:1"
             id="path74"
             inkscape:connector-curvature="0" /></g><g
           id="g76"
           transform="translate(83.1682,51.6982)"><path
             d="M 0,0 C 0.919,3.666 1.838,7.332 2.757,10.998"
             style="fill:none;stroke:#404041;stroke-width:3.11400008;stroke-linecap:round;stroke-linejoin:round;stroke-miterlimit:10;stroke-dasharray:none;stroke-opacity:1"
             id="path78"
             inkscape:connector-curvature="0" /></g></g></g></g></svg>