<?xml version="1.0" encoding="UTF-8" standalone="no"?>
<!-- Created with Inkscape (http://www.inkscape.org/) -->

<svg
   xmlns:dc="http://purl.org/dc/elements/1.1/"
   xmlns:cc="http://creativecommons.org/ns#"
   xmlns:rdf="http://www.w3.org/1999/02/22-rdf-syntax-ns#"
   xmlns:svg="http://www.w3.org/2000/svg"
   xmlns="http://www.w3.org/2000/svg"
   xmlns:sodipodi="http://sodipodi.sourceforge.net/DTD/sodipodi-0.dtd"
   xmlns:inkscape="http://www.inkscape.org/namespaces/inkscape"
   version="1.1"
   id="svg2"
   xml:space="preserve"
   width="116.88187"
   height="168.91333"
   viewBox="0 0 116.88187 168.91333"
   sodipodi:docname="icon8.svg"
   inkscape:version="0.92.1 r15371"><metadata
     id="metadata8"><rdf:RDF><cc:Work
         rdf:about=""><dc:format>image/svg+xml</dc:format><dc:type
           rdf:resource="http://purl.org/dc/dcmitype/StillImage" /><dc:title></dc:title></cc:Work></rdf:RDF></metadata><defs
     id="defs6"><clipPath
       clipPathUnits="userSpaceOnUse"
       id="clipPath18"><path
         d="M 0,126.685 H 87.661 V 0 H 0 Z"
         id="path16"
         inkscape:connector-curvature="0" /></clipPath></defs><sodipodi:namedview
     pagecolor="#ffffff"
     bordercolor="#666666"
     borderopacity="1"
     objecttolerance="10"
     gridtolerance="10"
     guidetolerance="10"
     inkscape:pageopacity="0"
     inkscape:pageshadow="2"
     inkscape:window-width="743"
     inkscape:window-height="480"
     id="namedview4"
     showgrid="false"
     inkscape:zoom="1.3971662"
     inkscape:cx="58.440933"
     inkscape:cy="84.456665"
     inkscape:window-x="0"
     inkscape:window-y="0"
     inkscape:window-maximized="0"
     inkscape:current-layer="g10" /><g
     id="g10"
     inkscape:groupmode="layer"
     inkscape:label="Vector Smart Object6"
     transform="matrix(1.3333333,0,0,-1.3333333,0,168.91333)"><g
       id="g12"><g
         id="g14"
         clip-path="url(#clipPath18)"><g
           id="g20"
           transform="translate(53.856,38.7604)"><path
             d="m 0,0 c -0.381,0.034 -0.782,0.067 -1.206,0.096 -5.945,0.401 -16.849,0.143 -23.09,-6.097 -0.162,-0.163 -0.32,-0.332 -0.477,-0.504 h 18.268 z"
             style="fill:#b7a179;fill-opacity:1;fill-rule:nonzero;stroke:none"
             id="path22"
             inkscape:connector-curvature="0" /></g><g
           id="g24"
           transform="translate(74.729,16.7614)"><path
             d="M 0,0 C 1.684,-0.126 3.272,-0.104 4.604,-0.027 L 0,4.577 Z"
             style="fill:#b7a179;fill-opacity:1;fill-rule:nonzero;stroke:none"
             id="path26"
             inkscape:connector-curvature="0" /></g><g
           id="g28"
           transform="translate(67.0718,18.6579)"><path
             d="M 0,0 C 1.236,-0.613 2.568,-1.048 3.921,-1.352 V 6.417 L 0,10.338 Z"
             style="fill:#b7a179;fill-opacity:1;fill-rule:nonzero;stroke:none"
             id="path30"
             inkscape:connector-curvature="0" /></g><g
           id="g32"
           transform="translate(71.0415,45.2414)"><path
             d="M 0,0 C 2.798,2.797 2.652,8.032 2.405,10.469 -0.03,10.715 -5.266,10.861 -8.063,8.063 -10.678,5.448 -10.772,0.43 -10.48,-2.404 -8.049,-2.65 -2.803,-2.802 0,0"
             style="fill:#b7a179;fill-opacity:1;fill-rule:nonzero;stroke:none"
             id="path34"
             inkscape:connector-curvature="0" /></g><g
           id="g36"
           transform="translate(62.4341,38.9176)"><path
             d="m 0,0 19.541,-19.542 c 0.249,4.311 -0.074,11.34 -4.136,15.401 C 11.33,-0.065 4.306,0.253 0,0"
             style="fill:#b7a179;fill-opacity:1;fill-rule:nonzero;stroke:none"
             id="path38"
             inkscape:connector-curvature="0" /></g><g
           id="g40"
           transform="translate(63.3355,21.5456)"><path
             d="m 0,0 v 11.187 l -3.539,3.539 C -3.774,10.643 -3.483,4.129 0,0"
             style="fill:#b7a179;fill-opacity:1;fill-rule:nonzero;stroke:none"
             id="path42"
             inkscape:connector-curvature="0" /></g><g
           id="g44"
           transform="translate(56.0161,35.6374)"><path
             d="M 0,0 -6.569,-6.57 C -6.57,-6.571 -6.571,-6.571 -6.572,-6.572 l -10.907,-10.907 c -0.001,-0.001 -0.001,-0.002 -0.002,-0.003 l -12.328,-12.327 c 5.947,-0.528 17.704,-0.591 24.289,5.995 3.516,3.516 5.562,8.877 6.089,15.934 C 0.004,-5.055 -0.084,-2.266 0,0"
             style="fill:#b7a179;fill-opacity:1;fill-rule:nonzero;stroke:none"
             id="path46"
             inkscape:connector-curvature="0" /></g><g
           id="g48"
           transform="translate(56.4234,42.236)"><path
             d="M 0,0 C 0.164,-0.021 0.317,-0.042 0.461,-0.063 0.438,0.129 0.418,0.338 0.398,0.562 0.266,0.375 0.137,0.185 0,0"
             style="fill:#b7a179;fill-opacity:1;fill-rule:nonzero;stroke:none"
             id="path50"
             inkscape:connector-curvature="0" /></g><g
           id="g52"
           transform="translate(23.5366,17.6095)"><path
             d="M 0,0 C -0.324,-3.507 -0.187,-6.784 0.024,-9.144 L 9.168,0 Z"
             style="fill:#b7a179;fill-opacity:1;fill-rule:nonzero;stroke:none"
             id="path54"
             inkscape:connector-curvature="0" /></g><g
           id="g56"
           transform="translate(24.0659,21.3459)"><path
             d="m 0,0 h 12.375 l 7.173,7.173 H 2.417 C 1.241,4.936 0.479,2.47 0,0"
             style="fill:#b7a179;fill-opacity:1;fill-rule:nonzero;stroke:none"
             id="path58"
             inkscape:connector-curvature="0" /></g><g
           id="g60"
           transform="translate(54.6577,38.8532)"><path
             d="m 0,0 c 5.635,6.223 9.123,14.841 9.123,24.365 0,18.979 -30.956,61.599 -30.956,61.599 0,0 -30.956,-42.62 -30.956,-61.599 0,-17.069 11.207,-31.232 25.896,-33.912"
             style="fill:none;stroke:#414042;stroke-width:3.73699999;stroke-linecap:round;stroke-linejoin:round;stroke-miterlimit:10;stroke-dasharray:none;stroke-opacity:1"
             id="path62"
             inkscape:connector-curvature="0" /></g><g
           id="g64"
           transform="translate(14.0142,59.715)"><path
             d="M 0,0 C 0,-9.809 7.937,-17.746 17.745,-17.746"
             style="fill:none;stroke:#414042;stroke-width:3.73699999;stroke-linecap:round;stroke-linejoin:round;stroke-miterlimit:10;stroke-dasharray:none;stroke-opacity:1"
             id="path66"
             inkscape:connector-curvature="0" /></g><g
           id="g68"
           transform="translate(34.5112,104.5446)"><path
             d="M 0,0 5.866,-9.96"
             style="fill:none;stroke:#414042;stroke-width:3.73699999;stroke-linecap:round;stroke-linejoin:round;stroke-miterlimit:10;stroke-dasharray:none;stroke-opacity:1"
             id="path70"
             inkscape:connector-curvature="0" /></g><g
           id="g72"
           transform="translate(59.9927,36.6672)"><path
             d="m 0,0 c -0.138,1.011 -0.248,1.59 -0.248,1.59 0,0 -2.018,0.389 -5.087,0.596 -6.533,0.442 -17.833,0.063 -24.535,-6.64 -0.896,-0.895 -1.677,-1.87 -2.358,-2.907 h -0.002 c -6.831,-10.37 -3.684,-26.715 -3.684,-26.715 0,0 19.772,-3.805 29.622,6.044 4.627,4.628 6.241,11.444 6.651,17.372"
             style="fill:none;stroke:#414042;stroke-width:3.73699999;stroke-linecap:round;stroke-linejoin:round;stroke-miterlimit:10;stroke-dasharray:none;stroke-opacity:1"
             id="path74"
             inkscape:connector-curvature="0" /></g><g
           id="g76"
           transform="translate(24.0786,2.5915)"><path
             d="M 0,0 35.666,35.667"
             style="fill:none;stroke:#414042;stroke-width:3.73699999;stroke-linecap:round;stroke-linejoin:round;stroke-miterlimit:10;stroke-dasharray:none;stroke-opacity:1"
             id="path78"
             inkscape:connector-curvature="0" /></g><g
           id="g80"
           transform="translate(50.0073,28.5202)"><path
             d="M 0,0 H -21.819"
             style="fill:none;stroke:#414042;stroke-width:3.73699999;stroke-linecap:round;stroke-linejoin:round;stroke-miterlimit:10;stroke-dasharray:none;stroke-opacity:1"
             id="path82"
             inkscape:connector-curvature="0" /></g><g
           id="g84"
           transform="translate(39.0972,17.611)"><path
             d="M 0,0 H -14.676"
             style="fill:none;stroke:#414042;stroke-width:3.73699999;stroke-linecap:round;stroke-linejoin:round;stroke-miterlimit:10;stroke-dasharray:none;stroke-opacity:1"
             id="path86"
             inkscape:connector-curvature="0" /></g><g
           id="g88"
           transform="translate(64.4946,17.6823)"><path
             d="m 0,0 c -6.913,6.913 -4.242,20.791 -4.242,20.791 0,0 13.878,2.671 20.791,-4.242 6.913,-6.913 4.242,-20.791 4.242,-20.791 0,0 -13.878,-2.671 -20.791,4.242 z"
             style="fill:none;stroke:#414042;stroke-width:3.73699999;stroke-linecap:round;stroke-linejoin:round;stroke-miterlimit:10;stroke-dasharray:none;stroke-opacity:1"
             id="path90"
             inkscape:connector-curvature="0" /></g><g
           id="g92"
           transform="translate(85.2857,13.4401)"><path
             d="M 0,0 -25.033,25.033"
             style="fill:none;stroke:#414042;stroke-width:3.73699999;stroke-linecap:round;stroke-linejoin:round;stroke-miterlimit:10;stroke-dasharray:none;stroke-opacity:1"
             id="path94"
             inkscape:connector-curvature="0" /></g><g
           id="g96"
           transform="translate(67.0864,31.6388)"><path
             d="M 0,0 V -15.314"
             style="fill:none;stroke:#414042;stroke-width:3.73699999;stroke-linecap:round;stroke-linejoin:round;stroke-miterlimit:10;stroke-dasharray:none;stroke-opacity:1"
             id="path98"
             inkscape:connector-curvature="0" /></g><g
           id="g100"
           transform="translate(74.7437,23.9816)"><path
             d="M 0,0 V -10.301"
             style="fill:none;stroke:#414042;stroke-width:3.73699999;stroke-linecap:round;stroke-linejoin:round;stroke-miterlimit:10;stroke-dasharray:none;stroke-opacity:1"
             id="path102"
             inkscape:connector-curvature="0" /></g><g
           id="g104"
           transform="translate(74.2456,42.0534)"><path
             d="m 0,0 c -4.472,-4.472 -13.45,-2.744 -13.45,-2.744 0,0 -1.728,8.977 2.745,13.45 C -6.233,15.177 2.744,13.45 2.744,13.45 2.744,13.45 4.472,4.472 0,0 Z"
             style="fill:none;stroke:#414042;stroke-width:3.73699999;stroke-linecap:round;stroke-linejoin:round;stroke-miterlimit:10;stroke-dasharray:none;stroke-opacity:1"
             id="path106"
             inkscape:connector-curvature="0" /></g></g></g></g></svg>