<?xml version="1.0" encoding="UTF-8" standalone="no"?>
<!-- Created with Inkscape (http://www.inkscape.org/) -->

<svg
   xmlns:dc="http://purl.org/dc/elements/1.1/"
   xmlns:cc="http://creativecommons.org/ns#"
   xmlns:rdf="http://www.w3.org/1999/02/22-rdf-syntax-ns#"
   xmlns:svg="http://www.w3.org/2000/svg"
   xmlns="http://www.w3.org/2000/svg"
   xmlns:sodipodi="http://sodipodi.sourceforge.net/DTD/sodipodi-0.dtd"
   xmlns:inkscape="http://www.inkscape.org/namespaces/inkscape"
   version="1.1"
   id="svg2"
   xml:space="preserve"
   width="463.07199"
   height="509.332"
   viewBox="0 0 463.07199 509.332"
   sodipodi:docname="icon4.svg"
   inkscape:version="0.92.1 r15371"><metadata
     id="metadata8"><rdf:RDF><cc:Work
         rdf:about=""><dc:format>image/svg+xml</dc:format><dc:type
           rdf:resource="http://purl.org/dc/dcmitype/StillImage" /><dc:title></dc:title></cc:Work></rdf:RDF></metadata><defs
     id="defs6"><clipPath
       clipPathUnits="userSpaceOnUse"
       id="clipPath18"><path
         d="M 0,381.999 H 347.304 V 0 H 0 Z"
         id="path16"
         inkscape:connector-curvature="0" /></clipPath></defs><sodipodi:namedview
     pagecolor="#ffffff"
     bordercolor="#666666"
     borderopacity="1"
     objecttolerance="10"
     gridtolerance="10"
     guidetolerance="10"
     inkscape:pageopacity="0"
     inkscape:pageshadow="2"
     inkscape:window-width="743"
     inkscape:window-height="480"
     id="namedview4"
     showgrid="false"
     inkscape:zoom="0.463352"
     inkscape:cx="231.536"
     inkscape:cy="254.666"
     inkscape:window-x="0"
     inkscape:window-y="0"
     inkscape:window-maximized="0"
     inkscape:current-layer="g10" /><g
     id="g10"
     inkscape:groupmode="layer"
     inkscape:label="Vector Smart Object"
     transform="matrix(1.3333333,0,0,-1.3333333,0,509.332)"><g
       id="g12"><g
         id="g14"
         clip-path="url(#clipPath18)"><g
           id="g20"
           transform="translate(288.2862,321.4634)"><path
             d="M 0,0 C 8.079,0 14.651,6.573 14.651,14.651 14.651,22.73 8.079,29.303 0,29.303 -8.079,29.303 -14.651,22.73 -14.651,14.651 -14.651,6.573 -8.079,0 0,0"
             style="fill:#b7a179;fill-opacity:1;fill-rule:nonzero;stroke:none"
             id="path22"
             inkscape:connector-curvature="0" /></g><g
           id="g24"
           transform="translate(221.6505,347.4112)"><path
             d="M 0,0 C 8.645,0 15.677,7.032 15.677,15.676 15.677,24.32 8.645,31.353 0,31.353 -8.644,31.353 -15.676,24.32 -15.676,15.676 -15.676,7.032 -8.644,0 0,0"
             style="fill:#b7a179;fill-opacity:1;fill-rule:nonzero;stroke:none"
             id="path26"
             inkscape:connector-curvature="0" /></g><g
           id="g28"
           transform="translate(124.338,347.4112)"><path
             d="M 0,0 C 8.644,0 15.676,7.032 15.676,15.676 15.676,24.32 8.644,31.353 0,31.353 -8.645,31.353 -15.677,24.32 -15.677,15.676 -15.677,7.032 -8.645,0 0,0"
             style="fill:#b7a179;fill-opacity:1;fill-rule:nonzero;stroke:none"
             id="path30"
             inkscape:connector-curvature="0" /></g><g
           id="g32"
           transform="translate(52.9288,321.4634)"><path
             d="M 0,0 C 8.079,0 14.651,6.573 14.651,14.651 14.651,22.73 8.079,29.303 0,29.303 -8.079,29.303 -14.651,22.73 -14.651,14.651 -14.651,6.573 -8.079,0 0,0"
             style="fill:#b7a179;fill-opacity:1;fill-rule:nonzero;stroke:none"
             id="path34"
             inkscape:connector-curvature="0" /></g><g
           id="g36"
           transform="translate(121.6007,255.8082)"><path
             d="m 0,0 c -0.081,-0.357 -0.173,-0.703 -0.263,-1.041 -0.446,-1.675 -0.566,-2.125 0.915,-3.805 0.522,-0.591 1.731,-1.218 3.567,-1.218 0.02,0 0.041,0.001 0.06,0.001 3.348,0.024 7.004,2.069 10.032,5.608 7.619,8.908 21.043,13.228 35.042,11.278 9.785,-1.364 10.549,1.95 11.71,6.965 l 0.145,0.62 c 0.437,1.853 1.064,3.422 1.734,4.718 -4.604,0.476 -9.275,0.721 -14.004,0.721 -19.399,0 -37.855,-4.108 -54.555,-11.487 0.582,-0.363 1.091,-0.759 1.533,-1.157 C -0.487,7.958 0.599,2.611 0,0"
             style="fill:#b7a179;fill-opacity:1;fill-rule:nonzero;stroke:none"
             id="path38"
             inkscape:connector-curvature="0" /></g><g
           id="g40"
           transform="translate(52.0099,139.6046)"><path
             d="m 0,0 c 8.974,-4.783 4.943,-13.102 1.705,-19.785 -2.567,-5.3 -5.222,-10.779 -4.07,-16.039 1.46,-6.667 6.101,-11.677 10.196,-16.097 2.853,-3.078 5.316,-5.737 6.463,-8.654 3.015,-7.666 2.785,-14.683 -0.617,-20.46 10.115,-12.361 22.369,-22.904 36.191,-31.067 l 1.315,2.402 c 1.081,1.974 0.086,5.386 -1.068,9.335 -0.927,3.177 -1.977,6.777 -2.185,10.579 -0.414,7.546 5.803,13.048 10.799,17.469 1.825,1.613 3.548,3.138 4.742,4.551 1.441,1.707 1.301,3.366 0.88,6.657 -0.448,3.485 -1.004,7.822 1.47,13.002 1.511,3.164 3.765,5.437 5.753,7.442 4.137,4.173 6.416,6.472 1.733,14.618 -3.883,6.754 -9.075,6.408 -17.218,5.284 -5.218,-0.72 -10.614,-1.466 -15.36,1.137 -7.009,3.842 -8.067,8.387 -9.187,13.198 -0.357,1.537 -0.728,3.127 -1.317,4.855 -1.5,4.391 -4.701,7.54 -9.513,9.359 -3.83,1.448 -7.282,1.485 -7.316,1.485 -0.225,-0.001 -0.448,-0.002 -0.668,-0.002 -15.704,0 -21.094,5.777 -22.836,10.663 -3.175,8.907 3.704,19.559 9.602,24.276 5.662,4.528 8.999,9.139 10.203,14.096 0.899,3.696 2.498,6.26 3.791,8.082 1.475,2.075 5.886,6.785 15.007,5.766 1.696,-0.192 2.578,0.086 2.846,0.407 0.448,0.535 0.379,2.025 0.057,3.098 l -0.128,0.418 c -0.633,2.022 -1.812,5.786 1.588,9.667 1.448,1.653 3.33,2.586 5.444,2.697 4.546,0.256 8.666,-3.44 9.121,-3.86 l 0.274,-0.289 c 10e-4,0 1.368,-1.509 2.953,-1.416 1.733,0.097 3.381,1.983 4.459,3.548 3.109,4.512 -0.035,8.285 -7.347,14.091 -1.224,0.972 -2.282,1.811 -3.109,2.609 -2.45,2.364 -4.395,7.118 -3.986,12.249 C 8.077,92.393 -13.96,55.415 -16.632,13.259 -15.656,11.762 -11.433,6.096 0,0"
             style="fill:#b7a179;fill-opacity:1;fill-rule:nonzero;stroke:none"
             id="path42"
             inkscape:connector-curvature="0" /></g><g
           id="g44"
           transform="translate(216.1427,256.8272)"><path
             d="m 0,0 c -4.571,-0.266 -7.44,-0.552 -8.758,-2.991 -1.239,-2.291 -0.14,-4.668 1.197,-7.103 0.293,-0.533 0.541,-0.995 0.707,-1.367 0.063,-0.143 0.148,-0.313 0.243,-0.506 0.834,-1.691 2.568,-5.209 0.799,-8.402 -1.224,-2.211 -3.746,-3.526 -7.495,-3.906 -2.701,-0.274 -5.225,-0.203 -7.67,-0.135 -5.884,0.164 -9.345,0.098 -11.894,-3.215 -3.179,-4.132 -2.818,-8.042 1.07,-11.622 1.55,-1.426 10.117,-2.084 17.836,2.211 6.14,3.418 15.873,3.666 23.146,0.596 5.834,-2.464 9.726,-6.703 11.264,-12.262 0.121,-0.313 1.031,-2.489 3.369,-3.526 2.198,-0.974 5.116,-0.712 8.671,0.777 l 0.494,0.206 0.533,0.024 c 1.11,0.047 10.927,0.329 15.342,-4.845 1.294,-1.517 2.667,-4.155 1.857,-8.102 -0.919,-4.479 -3.31,-6.556 -5.154,-7.51 -5.235,-2.707 -11.869,0.21 -14.367,1.307 l -0.118,0.052 c -1.898,0.832 -7.093,2.901 -14.333,4.148 -4.636,0.798 -7.67,4.007 -10.346,6.839 -2.372,2.511 -4.614,4.882 -7.776,5.63 -7.792,1.846 -21.187,-1.382 -31.152,-7.508 -9.319,-5.727 -20.274,-17.194 -19.548,-39.304 0.345,-10.465 2.806,-17.953 7.118,-21.656 2.731,-2.345 6.336,-3.268 10.711,-2.745 4.291,0.513 7.618,1.798 10.555,2.931 5.295,2.045 10.298,3.976 17.191,-0.191 0.86,-0.499 6.015,-3.792 7.07,-11.485 0.892,-6.499 2.548,-9.988 6.328,-13.333 5.476,-4.848 8.764,-13.343 3.766,-21.393 -3.544,-5.708 -4.678,-12.287 1.301,-25.844 3.263,-7.399 6.674,-11.76 10.138,-12.964 1.842,-0.64 3.829,-0.373 6.077,0.815 10.008,5.292 21.437,22.624 23.627,26.044 4.167,6.511 8.466,14.898 8.751,27.739 0.309,13.945 11.575,22.067 13.176,23.151 0.793,0.686 6.988,6.456 3.127,15.854 -3.298,8.023 -1.152,14.998 6.377,20.733 2.146,1.632 4.013,4.021 3.246,10.294 C 77.598,-43.529 51.811,-10.855 17.256,7.328 15.717,5.668 13.12,3.438 9.119,1.65 6.238,0.363 3.067,0.178 0,0"
             style="fill:#b7a179;fill-opacity:1;fill-rule:nonzero;stroke:none"
             id="path46"
             inkscape:connector-curvature="0" /></g><g
           id="g48"
           transform="translate(171.1578,74.4952)"><path
             d="M 0,0 V -42.436"
             style="fill:none;stroke:#414042;stroke-width:6;stroke-linecap:round;stroke-linejoin:miter;stroke-miterlimit:10;stroke-dasharray:none;stroke-opacity:1"
             id="path50"
             inkscape:connector-curvature="0" /></g><g
           id="g52"
           transform="translate(192.3756,53.2774)"><path
             d="M 0,0 H -42.436"
             style="fill:none;stroke:#414042;stroke-width:6;stroke-linecap:round;stroke-linejoin:miter;stroke-miterlimit:10;stroke-dasharray:none;stroke-opacity:1"
             id="path54"
             inkscape:connector-curvature="0" /></g><g
           id="g56"
           transform="translate(109.2247,177.7794)"><path
             d="M 0,0 V -22.999"
             style="fill:none;stroke:#414042;stroke-width:6;stroke-linecap:round;stroke-linejoin:miter;stroke-miterlimit:10;stroke-dasharray:none;stroke-opacity:1"
             id="path58"
             inkscape:connector-curvature="0" /></g><g
           id="g60"
           transform="translate(120.7242,166.2798)"><path
             d="M 0,0 H -22.999"
             style="fill:none;stroke:#414042;stroke-width:6;stroke-linecap:round;stroke-linejoin:miter;stroke-miterlimit:10;stroke-dasharray:none;stroke-opacity:1"
             id="path62"
             inkscape:connector-curvature="0" /></g><g
           id="g64"
           transform="translate(146.8067,211.44)"><path
             d="M 0,0 V -18.018"
             style="fill:none;stroke:#414042;stroke-width:6;stroke-linecap:round;stroke-linejoin:miter;stroke-miterlimit:10;stroke-dasharray:none;stroke-opacity:1"
             id="path66"
             inkscape:connector-curvature="0" /></g><g
           id="g68"
           transform="translate(155.815,202.4312)"><path
             d="M 0,0 H -18.017"
             style="fill:none;stroke:#414042;stroke-width:6;stroke-linecap:round;stroke-linejoin:miter;stroke-miterlimit:10;stroke-dasharray:none;stroke-opacity:1"
             id="path70"
             inkscape:connector-curvature="0" /></g><g
           id="g72"
           transform="translate(235.6588,265.2271)"><path
             d="m 0,0 c 0,0 -2.349,-3.993 -8.576,-6.775 -6.227,-2.783 -15.764,0.575 -19.294,-5.954 -2.537,-4.695 0.969,-9.233 1.801,-11.112 0.832,-1.88 4.646,-7.736 -4.012,-8.614 -8.658,-0.878 -16.565,2.091 -21.639,-4.506 -5.596,-7.275 -1.446,-13.023 1.415,-15.657 2.822,-2.598 12.953,-2.864 21.328,1.796 8.374,4.661 26.582,3.032 30.085,-9.94 0,0 3.264,-9.983 16.064,-4.621 0,0 16.194,0.716 14.129,-9.347 -2.065,-10.063 -12.81,-5.184 -15.497,-4.006 -2.686,1.177 -8.054,3.155 -15.028,4.356 -7.332,1.262 -9.902,10.53 -17.94,12.433 -8.549,2.024 -22.749,-1.317 -33.415,-7.872 -12.672,-7.788 -21.642,-21.61 -20.973,-41.958 0.669,-20.348 8.815,-28.76 21.183,-27.282 12.367,1.478 16.794,8.634 25.86,3.139 0,0 4.695,-2.513 5.627,-9.312 0.933,-6.799 2.778,-11.159 7.311,-15.172 4.534,-4.013 7.336,-10.914 3.207,-17.564 -4.129,-6.65 -5.278,-14.167 1.104,-28.638 6.382,-14.471 13.224,-17.364 20.363,-13.59 9.567,5.061 20.269,20.078 24.75,27.079 4.613,7.207 8.93,16.019 9.225,29.289 0.295,13.271 11.973,20.811 11.973,20.811 0,0 9.094,7.257 4.104,19.401 -3.984,9.695 2.479,14.966 5.422,17.206 2.853,2.172 5.405,5.529 4.373,13.344"
             style="fill:none;stroke:#414042;stroke-width:6;stroke-linecap:round;stroke-linejoin:miter;stroke-miterlimit:10;stroke-dasharray:none;stroke-opacity:1"
             id="path74"
             inkscape:connector-curvature="0" /></g><g
           id="g76"
           transform="translate(193.0035,278.5352)"><path
             d="m 0,0 c 0,0 -3.002,-2.565 -4.23,-7.772 -1.228,-5.207 -2.188,-11.681 -15.19,-9.868 -13.002,1.812 -25.364,-2.091 -32.348,-10.257 -6.984,-8.166 -15.253,-7.755 -18.189,-4.425 -2.935,3.329 -1.878,5.083 -1.325,7.5 0.553,2.417 -1.656,13.608 -13.823,9.473 -12.166,-4.135 -10.141,-17.175 -6.108,-21.066 4.033,-3.89 17.263,-11.244 10.844,-20.561 -6.419,-9.317 -12.193,-2.344 -12.193,-2.344 0,0 -6.349,5.869 -10.272,1.39 -2.487,-2.84 -1.401,-5.384 -0.843,-7.249 0.558,-1.864 1.605,-8.214 -6.113,-7.346 -7.716,0.868 -11.169,-3.036 -12.225,-4.522 -1.056,-1.486 -2.509,-3.706 -3.322,-7.052 -1.054,-4.34 -3.75,-9.738 -11.244,-15.731 -9.511,-7.607 -19.176,-29.913 12.036,-29.594 0,0 15.261,0 19.659,-12.875 2.508,-7.338 1.279,-12.1 9.107,-16.392 9.811,-5.378 25.327,7.073 33.737,-7.556 8.41,-14.63 -3.177,-16.051 -7.379,-24.849 -4.202,-8.797 1.931,-14.738 -2.766,-20.3 -4.696,-5.562 -15.305,-11.405 -14.837,-19.921 0.466,-8.518 5.711,-16.363 2.889,-21.519 l -2.823,-5.157"
             style="fill:none;stroke:#414042;stroke-width:6;stroke-linecap:round;stroke-linejoin:miter;stroke-miterlimit:10;stroke-dasharray:none;stroke-opacity:1"
             id="path78"
             inkscape:connector-curvature="0" /></g><g
           id="g80"
           transform="translate(35.5182,149.1114)"><path
             d="m 0,0 c 0,0 3.605,-7.178 18.125,-14.919 11.677,-6.225 -6.939,-19.867 -3.884,-33.818 2.653,-12.115 14.347,-18.977 16.797,-25.208 2.45,-6.231 3.12,-13.435 -1.578,-19.59"
             style="fill:none;stroke:#414042;stroke-width:6;stroke-linecap:round;stroke-linejoin:miter;stroke-miterlimit:10;stroke-dasharray:none;stroke-opacity:1"
             id="path82"
             inkscape:connector-curvature="0" /></g><g
           id="g84"
           transform="translate(312.0284,141.4454)"><path
             d="M 0,0 C 0,76.461 -61.984,138.445 -138.445,138.445 -214.906,138.445 -276.89,76.461 -276.89,0 c 0,-76.461 61.984,-138.445 138.445,-138.445 C -61.984,-138.445 0,-76.461 0,0 Z"
             style="fill:none;stroke:#414042;stroke-width:6;stroke-linecap:round;stroke-linejoin:miter;stroke-miterlimit:10;stroke-dasharray:none;stroke-opacity:1"
             id="path86"
             inkscape:connector-curvature="0" /></g><g
           id="g88"
           transform="translate(243.3712,360.3223)"><path
             d="m 0,0 c 0,10.315 -8.361,18.676 -18.676,18.676 -10.315,0 -18.677,-8.361 -18.677,-18.676 0,-10.314 8.362,-18.676 18.677,-18.676 C -8.361,-18.676 0,-10.314 0,0 Z"
             style="fill:none;stroke:#414042;stroke-width:6;stroke-linecap:round;stroke-linejoin:round;stroke-miterlimit:10;stroke-dasharray:none;stroke-opacity:1"
             id="path90"
             inkscape:connector-curvature="0" /></g><g
           id="g92"
           transform="translate(202.8146,290.8423)"><path
             d="M 0,0 V 15.709"
             style="fill:none;stroke:#414042;stroke-width:6;stroke-linecap:round;stroke-linejoin:round;stroke-miterlimit:10;stroke-dasharray:none;stroke-opacity:1"
             id="path94"
             inkscape:connector-curvature="0" /></g><g
           id="g96"
           transform="translate(204.0441,333.939)"><path
             d="m 0,0 20.651,-10.626 21.646,9 V -2.04 l 30.675,-30.663 c 4.631,-4.642 4.631,-12.167 0,-16.808 l -4.287,-4.288 -26.388,26.387 v -30.73"
             style="fill:none;stroke:#414042;stroke-width:6;stroke-linecap:round;stroke-linejoin:round;stroke-miterlimit:10;stroke-dasharray:none;stroke-opacity:1"
             id="path98"
             inkscape:connector-curvature="0" /></g><g
           id="g100"
           transform="translate(204.0441,333.939)"><path
             d="m 0,0 -27.629,24.995 c -7.009,-7.009 -7.01,-18.373 0,-25.383 l 26.4,-26.4"
             style="fill:none;stroke:#414042;stroke-width:6;stroke-linecap:round;stroke-linejoin:round;stroke-miterlimit:10;stroke-dasharray:none;stroke-opacity:1"
             id="path102"
             inkscape:connector-curvature="0" /></g><g
           id="g104"
           transform="translate(108.7057,360.3223)"><path
             d="m 0,0 c 0,10.315 8.362,18.676 18.676,18.676 10.315,0 18.677,-8.361 18.677,-18.676 0,-10.314 -8.362,-18.676 -18.677,-18.676 C 8.362,-18.676 0,-10.314 0,0 Z"
             style="fill:none;stroke:#414042;stroke-width:6;stroke-linecap:round;stroke-linejoin:round;stroke-miterlimit:10;stroke-dasharray:none;stroke-opacity:1"
             id="path106"
             inkscape:connector-curvature="0" /></g><g
           id="g108"
           transform="translate(149.2623,291.1226)"><path
             d="M 0,0 V 15.429"
             style="fill:none;stroke:#414042;stroke-width:6;stroke-linecap:round;stroke-linejoin:round;stroke-miterlimit:10;stroke-dasharray:none;stroke-opacity:1"
             id="path110"
             inkscape:connector-curvature="0" /></g><g
           id="g112"
           transform="translate(148.92,333.939)"><path
             d="m 0,0 -21.539,-8.287 -21.645,6.661 V -2.04 l -30.675,-30.663 c -4.63,-4.642 -4.63,-12.167 0,-16.808 l 4.288,-4.288 26.387,26.387 v -29.829"
             style="fill:none;stroke:#414042;stroke-width:6;stroke-linecap:round;stroke-linejoin:round;stroke-miterlimit:10;stroke-dasharray:none;stroke-opacity:1"
             id="path114"
             inkscape:connector-curvature="0" /></g><g
           id="g116"
           transform="translate(149.2628,307.149)"><path
             d="m 0,0 26.4,26.4 c 0.13,0.13 0.25,0.26 0.38,0.39"
             style="fill:none;stroke:#414042;stroke-width:6;stroke-linecap:round;stroke-linejoin:round;stroke-miterlimit:10;stroke-dasharray:none;stroke-opacity:1"
             id="path118"
             inkscape:connector-curvature="0" /></g><g
           id="g120"
           transform="translate(148.92,333.939)"><path
             d="m 0,0 26.743,25 c 0.13,-0.13 0.25,-0.26 0.38,-0.39"
             style="fill:none;stroke:#414042;stroke-width:6;stroke-linecap:round;stroke-linejoin:round;stroke-miterlimit:10;stroke-dasharray:none;stroke-opacity:1"
             id="path122"
             inkscape:connector-curvature="0" /></g><g
           id="g124"
           transform="translate(73.6246,333.3497)"><path
             d="M 0,0 C 0,9.749 -7.903,17.651 -17.651,17.651 -27.4,17.651 -35.303,9.749 -35.303,0 c 0,-9.749 7.903,-17.651 17.652,-17.651 C -7.903,-17.651 0,-9.749 0,0 Z"
             style="fill:none;stroke:#414042;stroke-width:6;stroke-linecap:round;stroke-linejoin:round;stroke-miterlimit:10;stroke-dasharray:none;stroke-opacity:1"
             id="path126"
             inkscape:connector-curvature="0" /></g><g
           id="g128"
           transform="translate(35.2936,213.7838)"><path
             d="m 0,0 v 64.965 l -24.951,-24.962 -4.052,4.052 c -4.387,4.387 -4.387,11.499 0,15.886 L 0,88.944 0.324,88.621 v 0.692 h 40.814 v -0.391"
             style="fill:none;stroke:#414042;stroke-width:6;stroke-linecap:round;stroke-linejoin:round;stroke-miterlimit:10;stroke-dasharray:none;stroke-opacity:1"
             id="path130"
             inkscape:connector-curvature="0" /></g><g
           id="g132"
           transform="translate(273.6793,333.3497)"><path
             d="M 0,0 C 0,9.749 7.903,17.651 17.651,17.651 27.4,17.651 35.303,9.749 35.303,0 35.303,-9.749 27.4,-17.651 17.651,-17.651 7.903,-17.651 0,-9.749 0,0 Z"
             style="fill:none;stroke:#414042;stroke-width:6;stroke-linecap:round;stroke-linejoin:round;stroke-miterlimit:10;stroke-dasharray:none;stroke-opacity:1"
             id="path134"
             inkscape:connector-curvature="0" /></g><g
           id="g136"
           transform="translate(312.0103,212.0963)"><path
             d="m 0,0 v 66.652 l 24.951,-24.962 4.052,4.053 c 4.388,4.387 4.388,11.498 0,15.886 L 0,90.632 -0.324,90.308 V 91 h -36.531"
             style="fill:none;stroke:#414042;stroke-width:6;stroke-linecap:round;stroke-linejoin:round;stroke-miterlimit:10;stroke-dasharray:none;stroke-opacity:1"
             id="path138"
             inkscape:connector-curvature="0" /></g></g></g></g></svg>