<?xml version="1.0" encoding="UTF-8" standalone="no"?>
<!-- Created with Inkscape (http://www.inkscape.org/) -->

<svg
   xmlns:dc="http://purl.org/dc/elements/1.1/"
   xmlns:cc="http://creativecommons.org/ns#"
   xmlns:rdf="http://www.w3.org/1999/02/22-rdf-syntax-ns#"
   xmlns:svg="http://www.w3.org/2000/svg"
   xmlns="http://www.w3.org/2000/svg"
   xmlns:sodipodi="http://sodipodi.sourceforge.net/DTD/sodipodi-0.dtd"
   xmlns:inkscape="http://www.inkscape.org/namespaces/inkscape"
   version="1.1"
   id="svg2"
   xml:space="preserve"
   width="220.10268"
   height="271.88266"
   viewBox="0 0 220.10268 271.88266"
   sodipodi:docname="time_logo2.svg"
   inkscape:version="0.92.1 r15371"><metadata
     id="metadata8"><rdf:RDF><cc:Work
         rdf:about=""><dc:format>image/svg+xml</dc:format><dc:type
           rdf:resource="http://purl.org/dc/dcmitype/StillImage" /><dc:title></dc:title></cc:Work></rdf:RDF></metadata><defs
     id="defs6"><clipPath
       clipPathUnits="userSpaceOnUse"
       id="clipPath32"><path
         d="M 0,203.912 H 165.077 V 0 H 0 Z"
         id="path30"
         inkscape:connector-curvature="0" /></clipPath></defs><sodipodi:namedview
     pagecolor="#ffffff"
     bordercolor="#666666"
     borderopacity="1"
     objecttolerance="10"
     gridtolerance="10"
     guidetolerance="10"
     inkscape:pageopacity="0"
     inkscape:pageshadow="2"
     inkscape:window-width="1920"
     inkscape:window-height="1017"
     id="namedview4"
     showgrid="false"
     inkscape:zoom="0.86802152"
     inkscape:cx="110.05134"
     inkscape:cy="135.94133"
     inkscape:window-x="-8"
     inkscape:window-y="-8"
     inkscape:window-maximized="1"
     inkscape:current-layer="g10" /><g
     id="g10"
     inkscape:groupmode="layer"
     inkscape:label="Vector Smart Object14"
     transform="matrix(1.3333333,0,0,-1.3333333,0,271.88267)"><path
       d="M 0,0 H 165.077 V 203.912 H 0 Z"
       style="fill:#ffffff;fill-opacity:1;fill-rule:nonzero;stroke:none"
       id="path12"
       inkscape:connector-curvature="0" /><g
       id="g14"
       transform="translate(8.2516,28.3804)"><path
         d="M 0,0 V -2.319 H 4.083 V -5.382 H 0 v -2.4 h 4.306 v -3.062 H -3.61 V 3.066 H 4.306 V 0 Z"
         style="fill:#a39161;fill-opacity:1;fill-rule:nonzero;stroke:none"
         id="path16"
         inkscape:connector-curvature="0" /></g><g
       id="g18"
       transform="translate(16.6339,31.4463)"><path
         d="m 0,0 h 3.624 l 6.622,-8.504 h 0.036 V 0 h 3.61 v -13.91 h -3.61 L 3.658,-5.385 H 3.624 V -13.91 H 0 Z"
         style="fill:#a39161;fill-opacity:1;fill-rule:nonzero;stroke:none"
         id="path20"
         inkscape:connector-curvature="0" /></g><g
       id="g22"
       transform="translate(38.3624,28.3804)"><path
         d="M 0,0 V -2.319 H 4.078 V -5.382 H 0 v -2.4 h 4.302 v -3.062 H -3.617 V 3.066 H 4.302 V 0 Z"
         style="fill:#a39161;fill-opacity:1;fill-rule:nonzero;stroke:none"
         id="path24"
         inkscape:connector-curvature="0" /></g><g
       id="g26"><g
         id="g28"
         clip-path="url(#clipPath32)"><g
           id="g34"
           transform="translate(58.3136,17.5361)"><path
             d="M 0,0 H -4.509 L -7.914,5.35 H -7.959 V 0 h -3.612 v 13.911 h 5.4 c 2.749,0 4.837,-1.305 4.837,-4.283 0,-1.922 -1.068,-3.579 -3.045,-3.931 z m -7.959,7.673 h 0.356 c 1.183,0 2.503,0.227 2.503,1.735 0,1.512 -1.32,1.735 -2.503,1.735 h -0.356 z"
             style="fill:#a39161;fill-opacity:1;fill-rule:nonzero;stroke:none"
             id="path36"
             inkscape:connector-curvature="0" /></g><g
           id="g38"
           transform="translate(75.0065,25.3042)"><path
             d="m 0,0 c -0.029,-2.04 -0.175,-3.77 -1.414,-5.498 -1.366,-1.903 -3.414,-2.726 -5.74,-2.726 -4.367,0 -7.418,2.963 -7.418,7.332 0,4.522 3.068,7.492 7.553,7.492 2.857,0 5.072,-1.294 6.272,-3.888 L -4.182,1.275 c -0.498,1.324 -1.544,2.216 -3.008,2.216 -2.378,0 -3.621,-2.273 -3.621,-4.391 0,-2.164 1.301,-4.361 3.679,-4.361 1.568,0 2.768,0.807 2.912,2.413 H -7.18 V 0 Z"
             style="fill:#a39161;fill-opacity:1;fill-rule:nonzero;stroke:none"
             id="path40"
             inkscape:connector-curvature="0" /></g><g
           id="g42"
           transform="translate(76.9835,31.4463)"><path
             d="M 0,0 H 4.352 L 6.947,-3.781 9.549,0 h 4.333 L 8.758,-7.232 V -13.91 H 5.136 v 6.678 z"
             style="fill:#a39161;fill-opacity:1;fill-rule:nonzero;stroke:none"
             id="path44"
             inkscape:connector-curvature="0" /></g><g
           id="g46"
           transform="translate(101.7228,31.4463)"><path
             d="m 0,0 h 5.535 c 2.982,0 5.06,-1.38 5.06,-4.576 0,-3.285 -1.778,-4.728 -4.928,-4.728 H 3.621 v -4.606 l -3.621,0 z m 3.621,-6.38 h 0.608 c 1.306,0 2.6,0 2.6,1.688 0,1.757 -1.2,1.78 -2.6,1.78 H 3.621 Z"
             style="fill:#a39161;fill-opacity:1;fill-rule:nonzero;stroke:none"
             id="path48"
             inkscape:connector-curvature="0" /></g><g
           id="g50"
           transform="translate(127.339,17.5361)"><path
             d="m 0,0 h -4.504 l -3.41,5.35 H -7.95 V 0 h -3.614 v 13.911 h 5.398 c 2.751,0 4.836,-1.305 4.836,-4.283 0,-1.922 -1.07,-3.579 -3.04,-3.931 z m -7.95,7.673 h 0.349 c 1.168,0 2.51,0.227 2.51,1.735 0,1.512 -1.342,1.735 -2.51,1.735 H -7.95 Z"
             style="fill:#a39161;fill-opacity:1;fill-rule:nonzero;stroke:none"
             id="path52"
             inkscape:connector-curvature="0" /></g><path
           d="m 133.779,17.537 h -3.612 v 13.91 h 3.612 z"
           style="fill:#a39161;fill-opacity:1;fill-rule:nonzero;stroke:none"
           id="path54"
           inkscape:connector-curvature="0" /><g
           id="g56"
           transform="translate(148.9278,20.5981)"><path
             d="m 0,0 v -3.061 h -11.918 l 6.589,10.843 h -5.463 v 3.066 H 0.726 L -5.824,0 Z"
             style="fill:#a39161;fill-opacity:1;fill-rule:nonzero;stroke:none"
             id="path58"
             inkscape:connector-curvature="0" /></g><g
           id="g60"
           transform="translate(156.4996,28.3804)"><path
             d="M 0,0 V -2.319 H 4.079 V -5.382 H 0 v -2.4 h 4.302 v -3.062 H -3.616 V 3.066 H 4.302 V 0 Z"
             style="fill:#a39161;fill-opacity:1;fill-rule:nonzero;stroke:none"
             id="path62"
             inkscape:connector-curvature="0" /></g><path
           d="M 160.802,4.486 H 4.642 v 5.873 h 156.16 z"
           style="fill:#a39161;fill-opacity:1;fill-rule:nonzero;stroke:none"
           id="path64"
           inkscape:connector-curvature="0" /><g
           id="g66"
           transform="translate(122.6188,48.9951)"><path
             d="M 0,0 V -9.758 H 6.305 L 0.084,0 Z m -53.09,150.855 h -0.165 c 0.081,-0.022 0.148,-0.061 0.22,-0.077 -0.021,0.016 -0.036,0.055 -0.055,0.077 m 1.397,-20.139 c -0.882,0.1 -1.781,0.216 -2.724,0.347 -11.98,2.311 -19.752,9.093 -24.492,16.622 0.77,-4.246 2.112,-8.7 4.473,-11.457 3.169,-5.147 11.865,-10.535 22.743,-5.512 m 74.516,6.18 c -0.758,4.753 -2.513,10.138 -6.406,13.959 H 6.692 c 7.81,-3.574 12.85,-8.768 16.131,-13.959 m -140.8,-86.363 V 29.628 l 12.694,20.905 z m 101.635,67.869 c -0.572,-3.185 -1.488,-6.509 -2.874,-9.971 -3.477,-8.127 -8.705,-13.391 -13.956,-16.791 4.145,0.778 8.448,2.113 11.131,4.409 5.086,3.136 10.402,11.667 5.699,22.353 M 4.15,102.938 c 2.381,3.481 4.475,7.469 4.74,10.997 1.385,5.808 -0.878,15.588 -11.747,19.826 1.847,-2.656 3.53,-5.653 5,-9.076 3.284,-8.208 3.306,-15.625 2.007,-21.747 m -71.713,7.108 c 3.481,-2.379 7.478,-4.491 11.006,-4.757 5.8,-1.375 15.584,0.885 19.814,11.756 -2.647,-1.849 -5.637,-3.534 -9.058,-4.995 -8.219,-3.289 -15.626,-3.325 -21.762,-2.004 M 28.548,-5.62 h 9.636 V 0.264 H 28.548 Z M 2.125,50.533 H 0.034 V 31.407 H 2.03 c 5.309,0 9.835,2.901 9.835,9.559 0,6.121 -4.031,9.567 -9.74,9.567 M -74.462,47.5 -78.134,36.619 h 7.385 L -74.378,47.5 Z M 28.548,7.789 h 9.636 v 5.709 h -9.636 z m -0.941,118.049 c 0.934,-3.5 1.157,-6.154 1.21,-7.072 0.192,-2.874 0.849,-19.991 -19.278,-39.378 L -0.572,90.958 C -2.318,87.993 -3.951,86.049 -4.528,85.389 -6.452,83.221 -18.071,70.654 -46.003,71.167 l 1.027,15.335 c -3.343,-0.861 -5.87,-1.072 -6.748,-1.134 -2.878,-0.18 -19.985,-0.84 -39.376,19.276 l 11.557,10.114 c -2.958,1.747 -4.899,3.381 -5.56,3.954 -1.912,1.689 -11.869,10.913 -13.877,32.143 h -18.997 V 58.051 h 27.558 l -16.09,-26.644 h 14.322 v -7.048 l 12.964,33.692 h 9.698 l 12.867,-34.168 h -9.465 l -2.222,5.936 h -12.239 l -2.359,-5.936 h -35.034 v -2.858 h 18.545 v -7.527 h -10.744 V 7.789 h 9.746 V 0.264 h -9.746 V -9.758 h 16.344 c -2.938,3.244 -3.116,7.382 -3.116,11.565 v 19.218 h 8.883 V 3.029 c 0,-4.442 0.322,-9.291 6.035,-9.291 5.706,0 6.034,4.849 6.034,9.291 v 17.996 h 8.866 V 1.807 c 0,-4.183 -0.159,-8.321 -3.107,-11.565 h 11.184 v 23.256 h -7.344 v 7.527 h 23.568 v -7.527 h -7.346 V -9.758 h 11.22 c -2.936,3.244 -3.102,7.382 -3.102,11.565 v 19.218 h 8.88 V 3.029 c 0,-4.442 0.313,-9.291 6.024,-9.291 5.711,0 6.031,4.849 6.031,9.291 v 17.996 h 8.875 V 1.807 c 0,-4.183 -0.154,-8.321 -3.109,-11.565 h 6.469 V 21.025 H 4.391 c 6.754,0 11.876,-3.232 11.876,-10.518 0,-4.709 -2.633,-8.797 -7.483,-9.651 l 8.137,-10.614 h 2.744 v 30.783 h 18.518 v 103.39 z M -12.064,50.533 H -22.623 V 44.821 H -12.6 v -7.525 h -10.023 v -5.889 h 10.559 V 23.883 H -31.499 V 57.736 L -43.877,40.29 V 23.883 h -8.878 V 40.29 l -12.601,17.761 h 10.653 l 6.391,-9.284 6.387,9.284 h 29.861 z M 3.756,23.883 H -8.847 V 58.051 H 3.756 c 9.517,0 17.362,-7.472 17.362,-17.085 0,-9.603 -7.895,-17.083 -17.362,-17.083 M 0.859,14.219 H 0 V 5.701 h 0.859 c 2.897,0 6.163,0.544 6.163,4.252 0,3.73 -3.266,4.266 -6.163,4.266"
             style="fill:#a39161;fill-opacity:1;fill-rule:nonzero;stroke:none"
             id="path68"
             inkscape:connector-curvature="0" /></g></g></g></g></svg>